<?xml version="1.0" encoding="utf-8"?>
<COLLADA xmlns="http://www.collada.org/2005/11/COLLADASchema" version="1.4.1">
  <asset>
    <contributor>
      <author/>
      <authoring_tool>FBX COLLADA exporter</authoring_tool>
      <comments/>
    </contributor>
    <created>2021-09-06T22:45:20Z</created>
    <keywords/>
    <modified>2021-09-06T22:45:20Z</modified>
    <revision/>
    <subject/>
    <title/>
    <unit meter="0.010000" name="centimeter"/>
    <up_axis>Y_UP</up_axis>
  </asset>
  <library_images>
    <image id="file4-image" name="file4">
      <init_from>../textures/laser.png</init_from>
    </image>
  </library_images>
  <library_materials>
    <material id="lambert6" name="lambert6">
      <instance_effect url="#lambert6-fx"/>
    </material>
  </library_materials>
  <library_effects>
    <effect id="lambert6-fx" name="lambert6">
      <profile_COMMON>
        <technique sid="standard">
          <lambert>
            <emission>
              <color sid="emission">0.000000  0.000000 0.000000 1.000000</color>
            </emission>
            <ambient>
              <color sid="ambient">0.000000  0.000000 0.000000 1.000000</color>
            </ambient>
            <diffuse>
              <texture texture="file4-image" texcoord="CHANNEL0">
                <extra>
                  <technique profile="MAYA">
                    <wrapU sid="wrapU0">TRUE</wrapU>
                    <wrapV sid="wrapV0">TRUE</wrapV>
                    <blend_mode>NONE</blend_mode>
                  </technique>
                </extra>
              </texture>
            </diffuse>
            <transparent opaque="RGB_ZERO">
              <color sid="transparent">0.000000  0.000000 0.000000 1.000000</color>
            </transparent>
            <transparency>
              <float sid="transparency">1.000000</float>
            </transparency>
          </lambert>
        </technique>
      </profile_COMMON>
    </effect>
  </library_effects>
  <library_geometries>
    <geometry id="polySurface56-lib" name="polySurface56Mesh">
      <mesh>
        <source id="polySurface56-POSITION">
          <float_array id="polySurface56-POSITION-array" count="24">
-0.372766 0.396966 0.500000
0.372766 0.396966 0.500000
-0.372766 31.770935 0.500000
0.372766 31.770935 0.500000
-0.811111 32.167965 -0.500000
0.811111 32.167965 -0.500000
-0.811111 0.000000 -0.500000
0.811111 0.000000 -0.500000
</float_array>
          <technique_common>
            <accessor source="#polySurface56-POSITION-array" count="8" stride="3">
              <param name="X" type="float"/>
              <param name="Y" type="float"/>
              <param name="Z" type="float"/>
            </accessor>
          </technique_common>
        </source>
        <source id="polySurface56-Normal0">
          <float_array id="polySurface56-Normal0-array" count="108">
0.000000 0.000000 1.000000
0.000000 0.000000 1.000000
0.000000 0.000000 1.000000
0.000000 0.000000 1.000000
0.000000 0.000000 1.000000
0.000000 0.000000 1.000000
0.000000 0.929426 0.369008
0.000000 0.929426 0.369008
0.000000 0.929426 0.369008
0.000000 0.929426 0.369008
0.000000 0.929426 0.369008
0.000000 0.929426 0.369008
0.000000 0.000000 -1.000000
0.000000 0.000000 -1.000000
0.000000 0.000000 -1.000000
0.000000 0.000000 -1.000000
0.000000 0.000000 -1.000000
0.000000 0.000000 -1.000000
0.000000 -0.929446 0.368958
0.000000 -0.929446 0.368958
0.000000 -0.929446 0.368958
0.000000 -0.929446 0.368958
0.000000 -0.929446 0.368958
0.000000 -0.929446 0.368958
0.915873 0.000000 0.401468
0.915873 0.000000 0.401468
0.915873 0.000000 0.401468
0.915873 0.000000 0.401468
0.915873 0.000000 0.401468
0.915873 0.000000 0.401468
-0.915873 0.000000 0.401468
-0.915873 0.000000 0.401468
-0.915873 0.000000 0.401468
-0.915873 0.000000 0.401468
-0.915873 0.000000 0.401468
-0.915873 0.000000 0.401468
</float_array>
          <technique_common>
            <accessor source="#polySurface56-Normal0-array" count="36" stride="3">
              <param name="X" type="float"/>
              <param name="Y" type="float"/>
              <param name="Z" type="float"/>
            </accessor>
          </technique_common>
        </source>
        <source id="polySurface56-UV0">
          <float_array id="polySurface56-UV0-array" count="40">
1.001386 1.000000
0.900000 1.000000
0.900000 0.000000
1.001386 0.000000
0.900000 1.000000
0.900000 1.000000
0.000000 1.000000
0.000000 1.000000
0.453129 0.375000
0.453129 0.375000
0.453129 0.375000
0.453129 0.375000
0.000000 1.000000
0.000000 1.000000
0.900000 1.000000
0.900000 1.000000
0.000000 0.000000
0.900000 0.000000
0.000000 0.000000
0.900000 0.000000
</float_array>
          <technique_common>
            <accessor source="#polySurface56-UV0-array" count="20" stride="2">
              <param name="S" type="float"/>
              <param name="T" type="float"/>
            </accessor>
          </technique_common>
        </source>
        <vertices id="polySurface56-VERTEX">
          <input semantic="POSITION" source="#polySurface56-POSITION"/>
        </vertices>
        <triangles count="12" material="lambert6">
          <input semantic="VERTEX" offset="0" source="#polySurface56-VERTEX"/>
          <input semantic="NORMAL" offset="1" source="#polySurface56-Normal0"/>
          <input semantic="TEXCOORD" offset="2" set="0" source="#polySurface56-UV0"/>
          <p> 2 0 3 0 1 0 3 2 2 3 3 2 0 4 0 1 5 1 3 6 5 5 7 6 2 8 4 2 9 4 5 10 6 4 11 7 6 12 11 4 13 8 7 14 10 7 15 10 4 16 8 5 17 9 6 18 12 7 19 13 1 20 14 6 21 12 1 22 14 0 23 15 7 24 13 3 25 17 1 26 14 3 27 17 7 28 13 5 29 16 6 30 18 2 31 4 4 32 7 2 33 4 6 34 18 0 35 19</p>
        </triangles>
      </mesh>
    </geometry>
  </library_geometries>
  <library_visual_scenes>
    <visual_scene id="new laser reflected" name="new laser reflected">
      <node name="polySurface46" id="polySurface46" sid="polySurface46">
        <matrix sid="matrix">1.000000 0.000000 0.000000 0.000000 0.000000 1.000000 0.000000 0.000000 0.000000 0.000000 1.000000 0.000000 0.000000 0.000000 0.000000 1.000000</matrix>
        <extra>
          <technique profile="FCOLLADA">
            <visibility>1.000000</visibility>
          </technique>
        </extra>
        <node name="polySurface56" id="polySurface56" sid="polySurface56">
          <matrix sid="matrix">1.000000 0.000000 0.000000 0.000000 0.000000 1.000000 0.000000 0.000000 0.000000 0.000000 1.000000 0.000000 0.000000 0.000000 0.000000 1.000000</matrix>
          <instance_geometry url="#polySurface56-lib">
            <bind_material>
              <technique_common>
                <instance_material symbol="lambert6" target="#lambert6"/>
              </technique_common>
            </bind_material>
          </instance_geometry>
          <extra>
            <technique profile="FCOLLADA">
              <visibility>1.000000</visibility>
            </technique>
          </extra>
        </node>
      </node>
      <extra>
        <technique profile="MAX3D">
          <frame_rate>24.000000</frame_rate>
        </technique>
        <technique profile="FCOLLADA">
          <start_time>0.041667</start_time>
          <end_time>8.333333</end_time>
        </technique>
      </extra>
    </visual_scene>
  </library_visual_scenes>
  <scene>
    <instance_visual_scene url="#new laser reflected"/>
  </scene>
</COLLADA>
